0	0.3333333333333333
9	0.3877777777777778
42	0.4655555555555556
81	0.5477777777777777
162	0.5588888888888889
243	0.5733333333333334
324	0.5755555555555555
405	0.5855555555555554
486	0.5855555555555555
567	0.5722222222222222
648	0.5788888888888889
729	0.5855555555555554
810	0.5899999999999999
