0	0.3266666666666667
9	0.37444444444444447
42	0.47444444444444456
81	0.5311111111111111
162	0.5755555555555555
243	0.5977777777777777
324	0.5911111111111109
405	0.6244444444444446
486	0.6377777777777778
567	0.6188888888888888
648	0.6211111111111111
729	0.6166666666666666
810	0.6088888888888888
