0	0.33444444444444443
9	0.3666666666666667
42	0.4722222222222223
81	0.5244444444444444
162	0.58
243	0.6511111111111112
324	0.6877777777777778
405	0.6955555555555557
486	0.7022222222222222
567	0.6944444444444444
648	0.6933333333333334
729	0.6933333333333335
810	0.6944444444444444
