P005.html  0.0017036011798189064
P086.html  0.0016991147174100867
P157.html  0.003099596075249638
P125.html  0.0042205429311515524
P101.html  9.722081095511478E-4
P075.html  0.0023036249197597087
P107.html  0.03441935751417196
P078.html  0.002206799347742395
P024.html  8.741838062657915E-4
P021.html  0.0016318470338918692
P033.html  0.0012955112546767509
P170.html  0.002482108907188133
P199.html  0.0012471452507239703
P117.html  9.736977504034734E-4
P155.html  0.005713549446250163
P188.html  0.0016410680842099668
P095.html  0.0032915753655092172
P110.html  0.0014706411564677768
P063.html  0.0011125092093354876
P172.html  0.0011166906692767595
P129.html  0.0010161903106457517
P183.html  0.0011166906692767595
P015.html  8.741838062657915E-4
P093.html  0.0010614177800016078
P006.html  0.0017021986684490936
P169.html  0.0012862884100285266
P105.html  0.0012224565259168001
P153.html  0.0045987563020584744
P091.html  0.0021511535679162607
P027.html  0.0018093210950811912
P049.html  0.0013604835719398618
P059.html  0.0014315137084539222
P087.html  0.003757522641833773
P082.html  0.03639910263297994
P067.html  0.0011973820461742494
P164.html  0.0011166906692767595
P154.html  0.003099596075249638
P128.html  0.0010149724632036274
P070.html  0.001964449601596665
P189.html  0.002196246652061377
P097.html  0.0012188288995848837
P191.html  0.0011166906692767595
P102.html  0.0012728604926208371
P089.html  0.0024715269721163487
P057.html  9.925655320672498E-4
P197.html  0.0012471452507239703
P195.html  0.08311946783519272
P054.html  0.0015781711463821182
P163.html  0.07777276703959911
P166.html  0.0011166906692767595
P056.html  0.0014594091001982855
P122.html  0.0011320974322299262
P131.html  0.0015344626065941164
P123.html  9.770352153338586E-4
P159.html  0.006009287294894915
P149.html  0.03005468331244581
P179.html  0.0011166906692767595
P002.html  0.002550372847016776
P143.html  0.0014661482038405315
P182.html  0.0011166906692767595
P152.html  0.0037831521814854796
P168.html  0.0011166906692767595
P109.html  0.001380253742244149
P162.html  0.0011166906692767595
P073.html  0.0441225106580743
P115.html  0.001513691343185342
P010.html  0.0018805148887312305
P112.html  9.924439004818258E-4
P064.html  9.94912617799172E-4
P032.html  9.94912617799172E-4
P193.html  0.0036031015910549056
P150.html  0.02010162479252882
P185.html  0.0012862884100285266
P096.html  0.002068317789678577
P017.html  0.0012843369214730702
P050.html  8.741838062657915E-4
P184.html  0.0011166906692767595
P040.html  0.0013509229546975585
P069.html  0.0014021165498588517
P058.html  0.0015621668866532851
P148.html  0.02203615092915993
P119.html  9.770352153338586E-4
P083.html  0.0019860693901188058
P020.html  0.0013855526398849362
P080.html  0.0015401972367884828
P052.html  9.796438940479367E-4
P165.html  0.0017992659290241742
P192.html  0.001832009529767969
P113.html  9.792569810843815E-4
P144.html  0.001329519398333362
P004.html  0.0012084002163868463
P114.html  9.815060259990818E-4
P186.html  0.0012862884100285266
P065.html  8.741838062657915E-4
P177.html  0.0011166906692767595
P008.html  0.0015816593115079746
P151.html  0.0028268707314681534
P009.html  0.0010781051909910288
P145.html  0.02974377696697884
P011.html  8.741838062657915E-4
P001.html  0.001536112966405941
P130.html  0.0038928277233635606
P120.html  9.770352153338586E-4
P135.html  0.001739405814854871
P071.html  0.0011818559250842452
P103.html  0.03900196013522011
P142.html  0.001329519398333362
P016.html  0.0020553884517196053
P048.html  0.0021628985127635655
P022.html  0.0011208250800431667
P176.html  0.0011166906692767595
P039.html  0.0014150224811592534
P136.html  0.003983533945310132
P023.html  0.0014021422313382436
P014.html  0.001349118548390583
P167.html  0.0011166906692767595
P200.html  0.0012471452507239703
P092.html  0.0016850209052627588
P180.html  0.0011166906692767595
P066.html  0.0015881109815371688
P068.html  0.0013406080677987554
P118.html  0.001053017271632533
P173.html  0.0011166906692767595
P116.html  0.0011606101226664081
P076.html  0.010251583142394473
P088.html  0.007306886899302846
P084.html  0.07873569180501408
P060.html  0.0013792132406379599
P081.html  0.0016599063742885848
P072.html  0.010351587803053142
P127.html  9.954085460737105E-4
P044.html  0.0011541954619715186
P094.html  9.458509682858333E-4
P062.html  0.0016324509374449653
P038.html  8.716217391764508E-4
P126.html  9.737797567457066E-4
P034.html  0.0012634530271940375
P171.html  0.0011166906692767595
P045.html  0.0010450696512799781
P099.html  0.0015720690834416986
P175.html  0.0011166906692767595
P079.html  0.10350378419976311
P106.html  0.0015398538879751737
P196.html  0.0012471452507239703
P158.html  0.0028268707314681534
P100.html  0.0019391078476228764
P026.html  0.001348015076689621
P041.html  0.0013174224255809244
P012.html  0.001687816692736329
P161.html  0.0012748885140909671
P174.html  0.0011166906692767595
P133.html  0.0012719617785174819
P025.html  0.0016942953103407095
P124.html  0.029047949083768523
P108.html  0.0010929941078350266
P181.html  0.0011166906692767595
P047.html  0.0010977892874977063
P037.html  0.0011580866814256846
P134.html  0.0014521563638074586
P160.html  0.001444486254842734
P003.html  0.0019247828471477156
P121.html  9.770352153338586E-4
P077.html  0.0020386847530043193
P046.html  0.001063680369859562
P030.html  0.0011523771773085617
P029.html  0.002032857916021518
P132.html  0.0014521563638074586
P007.html  0.0013204074982967656
P031.html  0.0010834707196450035
P074.html  0.009274872050902274
P018.html  0.001252664954021551
P053.html  0.002132122946856653
P019.html  9.867405031387323E-4
P190.html  0.0010848407401426498
P098.html  0.0020565783906087284
P061.html  9.956880156402163E-4
P146.html  0.029189656220027723
P187.html  0.0012544384808944168
P035.html  0.0010879883891633348
P043.html  0.00121209534634138
P140.html  0.0012719617785174819
P141.html  0.0012719617785174819
P198.html  0.001199545346880827
P138.html  0.001392091502044133
P147.html  0.01903484562524866
P139.html  0.0012719617785174819
P055.html  0.0010266839560725185
P156.html  0.0028268707314681534
P090.html  0.002035890340155866
P111.html  0.0014034627466805601
P137.html  0.0012719617785174819
P085.html  0.001837894571042037
P051.html  0.001655442832496733
P194.html  0.004148451539179008
P036.html  0.001811637979282931
P042.html  0.0014448979222173885
P013.html  8.716217391764508E-4
P178.html  0.0010848407401426498
P104.html  0.001316666638358678
P028.html  8.716217391764508E-4

