0	1.0
9	0.9666666666666666
42	0.8261904761904761
81	0.8567901234567902
162	0.8969135802469136
243	0.8732510288065845
324	0.8564814814814815
405	0.8427160493827159
486	0.839506172839506
567	0.8305114638447971
648	0.8220679012345681
729	0.825102880658436
810	0.8240740740740742
