0	0.0
9	0.3433333333333334
42	0.43999999999999995
81	0.47666666666666674
162	0.5677777777777777
243	0.638888888888889
324	0.65
405	0.6477777777777778
486	0.6633333333333334
567	0.6777777777777778
648	0.6855555555555556
729	0.6933333333333334
810	0.7055555555555555
