0	0.0
9	0.34777777777777785
42	0.4411111111111111
81	0.4699999999999999
162	0.5633333333333332
243	0.6422222222222222
324	0.6488888888888888
405	0.6577777777777778
486	0.6855555555555556
567	0.6688888888888889
648	0.6777777777777778
729	0.6933333333333334
810	0.6955555555555557
